{
    "identityPoolName": "smarttravelbot_identitypool_18666c32",
    "allowUnauthenticatedIdentities": true,
    "authSelections": "identityPoolOnly",
    "resourceName": "cognitoc1b7312a",
    "authRoleArn": {
        "Fn::GetAtt": [
            "AuthRole",
            "Arn"
        ]
    },
    "unauthRoleArn": {
        "Fn::GetAtt": [
            "UnauthRole",
            "Arn"
        ]
    }
}