{
  "providers": {
    "awscloudformation": {
      "AuthRoleName": "amplify-smarttravelbot-dev-151317-authRole",
      "UnauthRoleArn": "arn:aws:iam::426066733149:role/amplify-smarttravelbot-dev-151317-unauthRole",
      "AuthRoleArn": "arn:aws:iam::426066733149:role/amplify-smarttravelbot-dev-151317-authRole",
      "Region": "us-east-1",
      "DeploymentBucketName": "amplify-smarttravelbot-dev-151317-deployment",
      "UnauthRoleName": "amplify-smarttravelbot-dev-151317-unauthRole",
      "StackName": "amplify-smarttravelbot-dev-151317",
      "StackId": "arn:aws:cloudformation:us-east-1:426066733149:stack/amplify-smarttravelbot-dev-151317/e88a4a10-7296-11eb-b164-0e71a2c850a7",
      "AmplifyAppId": "d5r4bv1zbcpg7"
    }
  },
  "auth": {
    "cognitoc1b7312a": {
      "service": "Cognito",
      "serviceType": "managed",
      "providerPlugin": "awscloudformation",
      "providerMetadata": {
        "s3TemplateURL": "https://s3.amazonaws.com/amplify-smarttravelbot-dev-151317-deployment/amplify-cfn-templates/auth/cognitoc1b7312a-cloudformation-template.yml",
        "logicalId": "authcognitoc1b7312a"
      },
      "lastPushTimeStamp": "2021-02-19T10:14:39.503Z",
      "output": {
        "IdentityPoolId": "us-east-1:8cd4bb92-4eae-46b1-b5f7-c43ff9fc95c9",
        "IdentityPoolName": "smarttravelbot_identitypool_18666c32__dev"
      },
      "lastPushDirHash": "qoVOVkcQIj+sZa3ZCaQhEvLeIkc="
    }
  },
  "interactions": {
    "smarttravelbot": {
      "service": "Lex",
      "providerPlugin": "awscloudformation",
      "build": true,
      "lastBuildTimeStamp": "2021-02-19T10:13:26.288Z",
      "lastPackageTimeStamp": "2021-02-19T10:13:26.339Z",
      "distZipFilename": "smarttravelbot-73453463376341423859-build.zip",
      "providerMetadata": {
        "s3TemplateURL": "https://s3.amazonaws.com/amplify-smarttravelbot-dev-151317-deployment/amplify-cfn-templates/interactions/smarttravelbot-cloudformation-template.json",
        "logicalId": "interactionssmarttravelbot"
      },
      "lastPushTimeStamp": "2021-02-19T10:14:39.503Z",
      "output": {
        "FunctionArn": "arn:aws:lambda:us-east-1:426066733149:function:smarttravelbot_cfnlambda_8f65617d-dev",
        "Region": "us-east-1",
        "BotName": "nomad_dev"
      },
      "lastPushDirHash": "MANLlUY63eSjQ8nVspyozEP5m/M="
    }
  }
}