{
  "dev": {
    "awscloudformation": {
      "AuthRoleName": "amplify-smarttravelbot-dev-151317-authRole",
      "UnauthRoleArn": "arn:aws:iam::426066733149:role/amplify-smarttravelbot-dev-151317-unauthRole",
      "AuthRoleArn": "arn:aws:iam::426066733149:role/amplify-smarttravelbot-dev-151317-authRole",
      "Region": "us-east-1",
      "DeploymentBucketName": "amplify-smarttravelbot-dev-151317-deployment",
      "UnauthRoleName": "amplify-smarttravelbot-dev-151317-unauthRole",
      "StackName": "amplify-smarttravelbot-dev-151317",
      "StackId": "arn:aws:cloudformation:us-east-1:426066733149:stack/amplify-smarttravelbot-dev-151317/e88a4a10-7296-11eb-b164-0e71a2c850a7",
      "AmplifyAppId": "d5r4bv1zbcpg7"
    },
    "categories": {
      "auth": {
        "cognitoc1b7312a": {}
      }
    }
  }
}